%YAML 1.1
%TAG !u! tag:unity3d.com,2011:
--- !u!21 &2100000
Material:
  serializedVersion: 6
  m_ObjectHideFlags: 0
  m_CorrespondingSourceObject: {fileID: 0}
  m_PrefabInstance: {fileID: 0}
  m_PrefabAsset: {fileID: 0}
  m_Name: Core Mobile
  m_Shader: {fileID: 4800000, guid: 4775e5a8f344d6348adf934e722da85d, type: 3}
  m_ShaderKeywords: BlendAdd Clip_ON FrameBlend_OFF FresnelFade_OFF SoftParticles_ON
    VertLight_OFF
  m_LightmapFlags: 5
  m_EnableInstancingVariants: 0
  m_DoubleSidedGI: 0
  m_CustomRenderQueue: -1
  stringTagMap: {}
  disabledShaderPasses: []
  m_SavedProperties:
    serializedVersion: 3
    m_TexEnvs:
    - _MainTex:
        m_Texture: {fileID: 2800000, guid: 5acadb32f05ccd242a4280c81a9b4da0, type: 3}
        m_Scale: {x: 1, y: 1}
        m_Offset: {x: 0, y: 0}
    m_Floats:
    - CullMode: 2
    - DstMode: 1
    - SrcMode: 5
    - _CoreStrength: 2
    - _CutOutLightCore: 0.4821429
    - _Cutout: 0.1
    - _FresnelStr: 1
    - _InvFade: 3
    - _TintStrength: 3
    m_Colors:
    - _Color: {r: 1, g: 1, b: 1, a: 1}
    - _CoreColor: {r: 0.5, g: 0.5, b: 0.5, a: 0.5}
    - _TintColor: {r: 0.6037736, g: 0.49080336, b: 0.4300463, a: 1}
