%YAML 1.1
%TAG !u! tag:unity3d.com,2011:
--- !u!114 &-1783848602139558753
MonoBehaviour:
  m_ObjectHideFlags: 3
  m_CorrespondingSourceObject: {fileID: 0}
  m_PrefabInstance: {fileID: 0}
  m_PrefabAsset: {fileID: 0}
  m_GameObject: {fileID: 0}
  m_Enabled: 1
  m_EditorHideFlags: 0
  m_Script: {fileID: 11500000, guid: 40b924e2dad56384a8df2a1e111bb675, type: 3}
  m_Name: Vignette
  m_EditorClassIdentifier: 
  active: 1
  enabled:
    overrideState: 1
    value: 1
  mode:
    overrideState: 0
    value: 0
  color:
    overrideState: 0
    value: {r: 0, g: 0, b: 0, a: 1}
  center:
    overrideState: 0
    value: {x: 0.5, y: 0.5}
  intensity:
    overrideState: 1
    value: 0.394
  smoothness:
    overrideState: 0
    value: 0.2
  roundness:
    overrideState: 0
    value: 1
  rounded:
    overrideState: 0
    value: 0
  mask:
    overrideState: 0
    value: {fileID: 0}
    defaultState: 1
  opacity:
    overrideState: 0
    value: 1
--- !u!114 &-1193399267749077642
MonoBehaviour:
  m_ObjectHideFlags: 3
  m_CorrespondingSourceObject: {fileID: 0}
  m_PrefabInstance: {fileID: 0}
  m_PrefabAsset: {fileID: 0}
  m_GameObject: {fileID: 0}
  m_Enabled: 1
  m_EditorHideFlags: 0
  m_Script: {fileID: 11500000, guid: b94fcd11afffcb142908bfcb1e261fba, type: 3}
  m_Name: MotionBlur
  m_EditorClassIdentifier: 
  active: 1
  enabled:
    overrideState: 1
    value: 1
  shutterAngle:
    overrideState: 1
    value: 61
  sampleCount:
    overrideState: 1
    value: 8
--- !u!114 &11400000
MonoBehaviour:
  m_ObjectHideFlags: 0
  m_CorrespondingSourceObject: {fileID: 0}
  m_PrefabInstance: {fileID: 0}
  m_PrefabAsset: {fileID: 0}
  m_GameObject: {fileID: 0}
  m_Enabled: 1
  m_EditorHideFlags: 0
  m_Script: {fileID: 11500000, guid: 8e6292b2c06870d4495f009f912b9600, type: 3}
  m_Name: PP Profile
  m_EditorClassIdentifier: 
  settings:
  - {fileID: 5399479456755745273}
  - {fileID: -1783848602139558753}
  - {fileID: -1193399267749077642}
  - {fileID: 7326888144376513319}
  - {fileID: 6837132044445207801}
  - {fileID: 5786097851587275086}
  - {fileID: 6853751272686016681}
  - {fileID: 7938235540158762748}
--- !u!114 &5399479456755745273
MonoBehaviour:
  m_ObjectHideFlags: 3
  m_CorrespondingSourceObject: {fileID: 0}
  m_PrefabInstance: {fileID: 0}
  m_PrefabAsset: {fileID: 0}
  m_GameObject: {fileID: 0}
  m_Enabled: 1
  m_EditorHideFlags: 0
  m_Script: {fileID: 11500000, guid: c1cb7e9e120078f43bce4f0b1be547a7, type: 3}
  m_Name: AmbientOcclusion
  m_EditorClassIdentifier: 
  active: 1
  enabled:
    overrideState: 1
    value: 1
  mode:
    overrideState: 0
    value: 1
  intensity:
    overrideState: 1
    value: 0.48
  color:
    overrideState: 0
    value: {r: 0, g: 0, b: 0, a: 1}
  ambientOnly:
    overrideState: 0
    value: 1
  noiseFilterTolerance:
    overrideState: 0
    value: 0
  blurTolerance:
    overrideState: 0
    value: -4.6
  upsampleTolerance:
    overrideState: 0
    value: -12
  thicknessModifier:
    overrideState: 0
    value: 1
  directLightingStrength:
    overrideState: 0
    value: 0
  radius:
    overrideState: 0
    value: 0.25
  quality:
    overrideState: 0
    value: 2
--- !u!114 &5786097851587275086
MonoBehaviour:
  m_ObjectHideFlags: 3
  m_CorrespondingSourceObject: {fileID: 0}
  m_PrefabInstance: {fileID: 0}
  m_PrefabAsset: {fileID: 0}
  m_GameObject: {fileID: 0}
  m_Enabled: 1
  m_EditorHideFlags: 0
  m_Script: {fileID: 11500000, guid: d65e486e4de6e5448a8fbb43dc8756a0, type: 3}
  m_Name: Grain
  m_EditorClassIdentifier: 
  active: 0
  enabled:
    overrideState: 1
    value: 1
  colored:
    overrideState: 1
    value: 1
  intensity:
    overrideState: 1
    value: 0
  size:
    overrideState: 1
    value: 1
  lumContrib:
    overrideState: 0
    value: 0.8
--- !u!114 &6837132044445207801
MonoBehaviour:
  m_ObjectHideFlags: 3
  m_CorrespondingSourceObject: {fileID: 0}
  m_PrefabInstance: {fileID: 0}
  m_PrefabAsset: {fileID: 0}
  m_GameObject: {fileID: 0}
  m_Enabled: 1
  m_EditorHideFlags: 0
  m_Script: {fileID: 11500000, guid: 556797029e73b2347956b6579e77e05b, type: 3}
  m_Name: DepthOfField
  m_EditorClassIdentifier: 
  active: 0
  enabled:
    overrideState: 1
    value: 1
  focusDistance:
    overrideState: 1
    value: 5
  aperture:
    overrideState: 1
    value: 32
  focalLength:
    overrideState: 1
    value: 208
  kernelSize:
    overrideState: 1
    value: 1
--- !u!114 &6853751272686016681
MonoBehaviour:
  m_ObjectHideFlags: 3
  m_CorrespondingSourceObject: {fileID: 0}
  m_PrefabInstance: {fileID: 0}
  m_PrefabAsset: {fileID: 0}
  m_GameObject: {fileID: 0}
  m_Enabled: 1
  m_EditorHideFlags: 0
  m_Script: {fileID: 11500000, guid: 9b77c5407dc277943b591ade9e6b18c5, type: 3}
  m_Name: LensDistortion
  m_EditorClassIdentifier: 
  active: 0
  enabled:
    overrideState: 1
    value: 1
  intensity:
    overrideState: 1
    value: 38.7
  intensityX:
    overrideState: 1
    value: 1
  intensityY:
    overrideState: 0
    value: 1
  centerX:
    overrideState: 1
    value: -0.014
  centerY:
    overrideState: 1
    value: -0.482
  scale:
    overrideState: 1
    value: 0.88
--- !u!114 &7326888144376513319
MonoBehaviour:
  m_ObjectHideFlags: 3
  m_CorrespondingSourceObject: {fileID: 0}
  m_PrefabInstance: {fileID: 0}
  m_PrefabAsset: {fileID: 0}
  m_GameObject: {fileID: 0}
  m_Enabled: 1
  m_EditorHideFlags: 0
  m_Script: {fileID: 11500000, guid: 48a79b01ea5641d4aa6daa2e23605641, type: 3}
  m_Name: Bloom
  m_EditorClassIdentifier: 
  active: 0
  enabled:
    overrideState: 1
    value: 1
  intensity:
    overrideState: 1
    value: 0
  threshold:
    overrideState: 0
    value: 1
  softKnee:
    overrideState: 0
    value: 0.5
  clamp:
    overrideState: 0
    value: 65472
  diffusion:
    overrideState: 0
    value: 7
  anamorphicRatio:
    overrideState: 0
    value: 0
  color:
    overrideState: 0
    value: {r: 1, g: 1, b: 1, a: 1}
  fastMode:
    overrideState: 0
    value: 0
  dirtTexture:
    overrideState: 0
    value: {fileID: 0}
    defaultState: 1
  dirtIntensity:
    overrideState: 0
    value: 0
--- !u!114 &7938235540158762748
MonoBehaviour:
  m_ObjectHideFlags: 3
  m_CorrespondingSourceObject: {fileID: 0}
  m_PrefabInstance: {fileID: 0}
  m_PrefabAsset: {fileID: 0}
  m_GameObject: {fileID: 0}
  m_Enabled: 1
  m_EditorHideFlags: 0
  m_Script: {fileID: 11500000, guid: 7a34fa72bd4185749832024e9c8010bf, type: 3}
  m_Name: ScreenSpaceReflections
  m_EditorClassIdentifier: 
  active: 0
  enabled:
    overrideState: 1
    value: 1
  preset:
    overrideState: 1
    value: 2
  maximumIterationCount:
    overrideState: 0
    value: 16
  resolution:
    overrideState: 0
    value: 0
  thickness:
    overrideState: 0
    value: 8
  maximumMarchDistance:
    overrideState: 1
    value: 139.6
  distanceFade:
    overrideState: 1
    value: 1
  vignette:
    overrideState: 1
    value: 1
