%YAML 1.1
%TAG !u! tag:unity3d.com,2011:
--- !u!21 &2100000
Material:
  serializedVersion: 6
  m_ObjectHideFlags: 0
  m_CorrespondingSourceObject: {fileID: 0}
  m_PrefabInstance: {fileID: 0}
  m_PrefabAsset: {fileID: 0}
  m_Name: MagicCircle28bcg
  m_Shader: {fileID: 4800000, guid: b68b99c2e57cef4419465c63c527201b, type: 3}
  m_ShaderKeywords: _USEDISTORTION_ON
  m_LightmapFlags: 4
  m_EnableInstancingVariants: 0
  m_DoubleSidedGI: 0
  m_CustomRenderQueue: -1
  stringTagMap: {}
  disabledShaderPasses: []
  m_SavedProperties:
    serializedVersion: 3
    m_TexEnvs:
    - _BumpMap:
        m_Texture: {fileID: 0}
        m_Scale: {x: 1, y: 1}
        m_Offset: {x: 0, y: 0}
    - _DetailAlbedoMap:
        m_Texture: {fileID: 0}
        m_Scale: {x: 1, y: 1}
        m_Offset: {x: 0, y: 0}
    - _DetailMask:
        m_Texture: {fileID: 0}
        m_Scale: {x: 1, y: 1}
        m_Offset: {x: 0, y: 0}
    - _DetailNormalMap:
        m_Texture: {fileID: 0}
        m_Scale: {x: 1, y: 1}
        m_Offset: {x: 0, y: 0}
    - _EmissionMap:
        m_Texture: {fileID: 0}
        m_Scale: {x: 1, y: 1}
        m_Offset: {x: 0, y: 0}
    - _Flow:
        m_Texture: {fileID: 0}
        m_Scale: {x: 1, y: 1}
        m_Offset: {x: 0, y: 0}
    - _MainTex:
        m_Texture: {fileID: 2800000, guid: ff7310a68368e1541bc8e3b8b06f3eb5, type: 3}
        m_Scale: {x: 1, y: 1}
        m_Offset: {x: 0, y: 0}
    - _Mask:
        m_Texture: {fileID: 2800000, guid: f9b2ffd8221a8584bb0198fe1857f143, type: 3}
        m_Scale: {x: 1, y: 1}
        m_Offset: {x: 0, y: 0}
    - _MetallicGlossMap:
        m_Texture: {fileID: 0}
        m_Scale: {x: 1, y: 1}
        m_Offset: {x: 0, y: 0}
    - _Noise:
        m_Texture: {fileID: 0}
        m_Scale: {x: 1, y: 1}
        m_Offset: {x: 0, y: 0}
    - _OcclusionMap:
        m_Texture: {fileID: 0}
        m_Scale: {x: 1, y: 1}
        m_Offset: {x: 0, y: 0}
    - _ParallaxMap:
        m_Texture: {fileID: 0}
        m_Scale: {x: 1, y: 1}
        m_Offset: {x: 0, y: 0}
    - _texcoord:
        m_Texture: {fileID: 0}
        m_Scale: {x: 1, y: 1}
        m_Offset: {x: 0, y: 0}
    m_Floats:
    - _BumpScale: 1
    - _CullMode: 0
    - _Cutoff: 0.5
    - _Depthpower: 1
    - _DetailNormalMapScale: 1
    - _DstBlend: 0
    - _Emission: 1.5
    - _GlossMapScale: 1
    - _Glossiness: 0.5
    - _GlossyReflections: 1
    - _InvFade: 1
    - _MainTexUspeed: 0
    - _MainTexVspeed: 0
    - _Metallic: 0
    - _Mode: 0
    - _NoiseUspeed: 0
    - _NoiseVspeed: 0
    - _OcclusionStrength: 1
    - _Opacity: 1
    - _Parallax: 0.02
    - _SmoothnessTextureChannel: 0
    - _SpecularHighlights: 1
    - _SrcBlend: 1
    - _UVSec: 0
    - _Usecenterglow: 0
    - _Usedepth: 0
    - _Usedistortion: 1
    - _ZWrite: 1
    m_Colors:
    - _Color: {r: 1, g: 1, b: 1, a: 1}
    - _DistortionSpeedXYPowerZ: {r: 0, g: 0, b: 0, a: 0}
    - _EmissionColor: {r: 0, g: 0, b: 0, a: 1}
    - _SpeedMainTexUVNoiseUV: {r: 0, g: 0, b: 0, a: 0}
    - _SpeedMainTexUVNoiseZW: {r: 0, g: 0, b: 0, a: 0}
    - _TintColor: {r: 1, g: 1, b: 1, a: 1}
    - _UVDistortionOpacity: {r: -1, g: 0, b: 1, a: 0.4}
